fifo_shift/fifo.vcd
$date
     May 11, 2021       14:27:30
$end

$version
 SystemC 2.3.3-Accellera --- Mar 22 2020 15:59:11
$end

$timescale
     1 ps
$end

$scope module SystemC $end
$var wire    8  aaaaa  w_input [7:0]  $end
$var wire    8  aaaab  w_output [7:0]  $end
$var wire    1  aaaac  w_rst       $end
$var wire    1  aaaad  w_rd_i       $end
$var wire    1  aaaae  w_wr_i       $end
$var wire    1  aaaaf  w_rok_o       $end
$var wire    1  aaaag  w_wok_o       $end
$var wire    1  aaaah  clk       $end
$upscope $end
$enddefinitions  $end

$comment
All initial values are dumped below at time 0 sec = 0 timescale units.
$end

$dumpvars
b0 aaaaa
b0 aaaab
1aaaac
0aaaad
0aaaae
0aaaaf
1aaaag
1aaaah
$end

#500
0aaaah

#1000
b11 aaaaa
0aaaac
1aaaae
1aaaah

#1500
b11 aaaab
1aaaaf
0aaaah

#2000
b111 aaaaa
1aaaad
1aaaah

#2500
b111 aaaab
0aaaaf
0aaaah

#3000
b1111 aaaaa
0aaaad
1aaaah

#3500
b1111 aaaab
1aaaaf
0aaaah

#4000
b11111 aaaaa
1aaaad
1aaaah

#4500
b11111 aaaab
0aaaaf
0aaaah

#5000
b111111 aaaaa
0aaaad
1aaaah

#5500
b111111 aaaab
1aaaaf
0aaaah

#6000
b1111111 aaaaa
1aaaad
1aaaah

#6500
b1111111 aaaab
0aaaaf
0aaaah

#7000
b11111111 aaaaa
0aaaad
1aaaah

#7500
b11111111 aaaab
1aaaaf
0aaaah

#8000
b11111110 aaaaa
1aaaad
1aaaah

#8500
b11111110 aaaab
0aaaaf
0aaaah

#9000
b11111100 aaaaa
0aaaad
1aaaah

#9500
b11111100 aaaab
1aaaaf
0aaaah

