xout/xout_tb.vcd
$date
     Jun 23, 2021       14:10:50
$end

$version
 SystemC 2.3.3-Accellera --- Mar 22 2020 15:59:11
$end

$timescale
     1 ps
$end

$scope module SystemC $end
$var wire    1  aaaaa  clk_i       $end
$var wire    1  aaaab  rst_i       $end
$var wire    8  aaaac  data_o [7:0]  $end
$var wire    1  aaaad  val_o       $end
$var wire    1  aaaae  ack_i       $end
$var wire    4  aaaaf  req_i [3:0]  $end
$var wire    4  aaaag  gnt_o [3:0]  $end
$var wire    4  aaaah  rok_i [3:0]  $end
$var wire    1  aaaai  rd_o       $end
$var wire    8  aaaaj  data3_i [7:0]  $end
$var wire    8  aaaak  data2_i [7:0]  $end
$var wire    8  aaaal  data1_i [7:0]  $end
$var wire    8  aaaam  data0_i [7:0]  $end
$upscope $end
$enddefinitions  $end

$comment
All initial values are dumped below at time 0 sec = 0 timescale units.
$end

$dumpvars
1aaaaa
1aaaab
b0 aaaac
0aaaad
0aaaae
b0 aaaaf
b0 aaaag
b0 aaaah
0aaaai
b0 aaaaj
b0 aaaak
b0 aaaal
b0 aaaam
$end

#500
0aaaaa

#1000
1aaaaa
0aaaab
b100 aaaaf
b100 aaaah

#1500
0aaaaa

#2000
1aaaaa

#2500
0aaaaa
b100 aaaag

#3000
1aaaaa

#3500
0aaaaa
1aaaad

#4000
1aaaaa
b11111111 aaaac
b11111111 aaaak

#4500
0aaaaa

#5000
1aaaaa
1aaaae

#5500
0aaaaa
0aaaad
1aaaai

#6000
1aaaaa

#6500
0aaaaa
0aaaai

#7000
1aaaaa
0aaaae

#7500
0aaaaa
1aaaad

#8000
1aaaaa
b10 aaaac
b10 aaaak

#8500
0aaaaa

#9000
1aaaaa
1aaaae

#9500
0aaaaa
0aaaad
1aaaai

#10000
1aaaaa

#10500
0aaaaa
0aaaai

#11000
1aaaaa
0aaaae

#11500
0aaaaa
1aaaad

#12000
1aaaaa
b100 aaaac
b100 aaaak

#12500
0aaaaa

#13000
1aaaaa
1aaaae

#13500
0aaaaa
0aaaad
1aaaai

#14000
1aaaaa

#14500
0aaaaa
0aaaai

#15000
1aaaaa
0aaaae

#15500
0aaaaa
1aaaad

#16000
1aaaaa
b10000000 aaaac
b10000000 aaaak

#16500
0aaaaa

#17000
1aaaaa
1aaaae

#17500
0aaaaa
0aaaad
1aaaai

#18000
1aaaaa

#18500
0aaaaa
0aaaai

#19000
1aaaaa
0aaaae

#19500
0aaaaa
1aaaad

#20000
1aaaaa
b0 aaaac
b0 aaaak

#20500
0aaaaa

#21000
1aaaaa
0aaaad
1aaaae
b0 aaaaf
b0 aaaah
1aaaai

#21500
0aaaaa
b0 aaaag

#22000
1aaaaa

#22500
0aaaaa
0aaaai

#23000
1aaaaa
0aaaae

