router/router_tb.vcd
$date
     Jun 23, 2021       14:46:14
$end

$version
 SystemC 2.3.3-Accellera --- Mar 22 2020 15:59:11
$end

$timescale
     1 ps
$end

$scope module SystemC $end
$var wire    1  aaaaa  clk       $end
$var wire    1  aaaab  rst       $end
$var wire    8  aaaac  l_in_data_i [7:0]  $end
$var wire    1  aaaad  l_in_val_i       $end
$var wire    1  aaaae  l_in_ack_o       $end
$var wire    8  aaaaf  l_out_data_o [7:0]  $end
$var wire    1  aaaag  l_out_val_o       $end
$var wire    1  aaaah  l_out_ack_i       $end
$var wire    8  aaaai  n_in_data_i [7:0]  $end
$var wire    1  aaaaj  n_in_val_i       $end
$var wire    1  aaaak  n_in_ack_o       $end
$var wire    8  aaaal  n_out_data_o [7:0]  $end
$var wire    1  aaaam  n_out_val_o       $end
$var wire    1  aaaan  n_out_ack_i       $end
$var wire    8  aaaao  e_in_data_i [7:0]  $end
$var wire    1  aaaap  e_in_val_i       $end
$var wire    1  aaaaq  e_in_ack_o       $end
$var wire    8  aaaar  e_out_data_o [7:0]  $end
$var wire    1  aaaas  e_out_val_o       $end
$var wire    1  aaaat  e_out_ack_i       $end
$var wire    8  aaaau  s_in_data_i [7:0]  $end
$var wire    1  aaaav  s_in_val_i       $end
$var wire    1  aaaaw  s_in_ack_o       $end
$var wire    8  aaaax  s_out_data_o [7:0]  $end
$var wire    1  aaaay  s_out_val_o       $end
$var wire    1  aaaaz  s_out_ack_i       $end
$var wire    8  aaaba  w_in_data_i [7:0]  $end
$var wire    1  aaabb  w_in_val_i       $end
$var wire    1  aaabc  w_in_ack_o       $end
$var wire    8  aaabd  w_out_data_o [7:0]  $end
$var wire    1  aaabe  w_out_val_o       $end
$var wire    1  aaabf  w_out_ack_i       $end
$upscope $end
$enddefinitions  $end

$comment
All initial values are dumped below at time 0 sec = 0 timescale units.
$end

$dumpvars
1aaaaa
1aaaab
b11111111 aaaac
0aaaad
0aaaae
b0 aaaaf
0aaaag
0aaaah
b0 aaaai
0aaaaj
0aaaak
b0 aaaal
0aaaam
0aaaan
b0 aaaao
0aaaap
0aaaaq
b0 aaaar
0aaaas
0aaaat
b0 aaaau
0aaaav
0aaaaw
b0 aaaax
0aaaay
0aaaaz
b0 aaaba
0aaabb
0aaabc
b0 aaabd
0aaabe
0aaabf
$end

#500
0aaaaa

#1000
1aaaaa
0aaaab
1aaaad

#1500
0aaaaa

#2000
1aaaaa
1aaaae

#2500
0aaaaa

#3000
1aaaaa
0aaaad

#3500
0aaaaa

#4000
1aaaaa
0aaaae

#4500
0aaaaa

#5000
1aaaaa
b100 aaaac

#5500
0aaaaa

#6000
1aaaaa
1aaaad

#6500
0aaaaa

#7000
1aaaaa
1aaaae
b11111111 aaaar

#7500
0aaaaa

#8000
1aaaaa
0aaaad

#8500
0aaaaa
1aaaas

#9000
1aaaaa
0aaaae

#9500
0aaaaa

#10000
1aaaaa
b10000 aaaac
1aaaat

#10500
0aaaaa
0aaaas

#11000
1aaaaa
1aaaad

#11500
0aaaaa

#12000
1aaaaa
1aaaae
0aaaat

#12500
0aaaaa
1aaaas

#13000
1aaaaa
0aaaad

#13500
0aaaaa

#14000
1aaaaa
0aaaae
1aaaat

#14500
0aaaaa
0aaaas

#15000
1aaaaa
b10000000 aaaac

#15500
0aaaaa

#16000
1aaaaa
1aaaad
0aaaat

#16500
0aaaaa
1aaaas

#17000
1aaaaa
1aaaae

#17500
0aaaaa

#18000
1aaaaa
0aaaad
1aaaat

#18500
0aaaaa
0aaaas

#19000
1aaaaa
0aaaae

#19500
0aaaaa

#20000
1aaaaa
b0 aaaac
0aaaat

#20500
0aaaaa
1aaaas

#21000
1aaaaa
1aaaad

#21500
0aaaaa

#22000
1aaaaa
1aaaat

#22500
0aaaaa
0aaaas

#23000
1aaaaa

#23500
0aaaaa

#24000
1aaaaa
0aaaat

#24500
0aaaaa
1aaaas

#25000
1aaaaa

#25500
0aaaaa

#26000
1aaaaa
1aaaat

#26500
0aaaaa
0aaaas

#27000
1aaaaa

#27500
0aaaaa

#28000
1aaaaa
0aaaat

#28500
0aaaaa
1aaaas

#29000
1aaaaa

#29500
0aaaaa

#30000
1aaaaa
1aaaat

#30500
0aaaaa
0aaaas

#31000
1aaaaa

#31500
0aaaaa

#32000
1aaaaa
0aaaat

#32500
0aaaaa
1aaaas

#33000
1aaaaa

#33500
0aaaaa

#34000
1aaaaa
1aaaat

#34500
0aaaaa
0aaaas

#35000
1aaaaa

#35500
0aaaaa

#36000
1aaaaa
0aaaat

#36500
0aaaaa
1aaaas

#37000
1aaaaa

#37500
0aaaaa

#38000
1aaaaa
1aaaat

#38500
0aaaaa
0aaaas

#39000
1aaaaa

#39500
0aaaaa

#40000
1aaaaa
0aaaat

#40500
0aaaaa
1aaaas

#41000
1aaaaa

#41500
0aaaaa

#42000
1aaaaa
1aaaat

#42500
0aaaaa
0aaaas

#43000
1aaaaa

#43500
0aaaaa

#44000
1aaaaa
0aaaat

#44500
0aaaaa
1aaaas

#45000
1aaaaa

#45500
0aaaaa

#46000
1aaaaa
1aaaat

#46500
0aaaaa
0aaaas

#47000
1aaaaa

#47500
0aaaaa

#48000
1aaaaa
0aaaat

#48500
0aaaaa
1aaaas

#49000
1aaaaa

#49500
0aaaaa

#50000
1aaaaa
1aaaat

#50500
0aaaaa
0aaaas

#51000
1aaaaa

#51500
0aaaaa

#52000
1aaaaa
0aaaat

#52500
0aaaaa
1aaaas

#53000
1aaaaa

#53500
0aaaaa

#54000
1aaaaa
1aaaat

#54500
0aaaaa
0aaaas

#55000
1aaaaa

#55500
0aaaaa

#56000
1aaaaa
0aaaat

#56500
0aaaaa
1aaaas

#57000
1aaaaa

#57500
0aaaaa

#58000
1aaaaa
1aaaat

#58500
0aaaaa
0aaaas

#59000
1aaaaa

#59500
0aaaaa

#60000
1aaaaa
0aaaat

#60500
0aaaaa
1aaaas

#61000
1aaaaa

#61500
0aaaaa

#62000
1aaaaa
1aaaat

#62500
0aaaaa
0aaaas

#63000
1aaaaa

#63500
0aaaaa

#64000
1aaaaa
0aaaat

#64500
0aaaaa
1aaaas

#65000
1aaaaa

#65500
0aaaaa

#66000
1aaaaa
1aaaat

#66500
0aaaaa
0aaaas

#67000
1aaaaa

#67500
0aaaaa

#68000
1aaaaa
0aaaat

#68500
0aaaaa
1aaaas

#69000
1aaaaa

#69500
0aaaaa

#70000
1aaaaa
1aaaat

#70500
0aaaaa
0aaaas

#71000
1aaaaa

#71500
0aaaaa

#72000
1aaaaa
0aaaat

#72500
0aaaaa
1aaaas

#73000
1aaaaa

#73500
0aaaaa

#74000
1aaaaa
1aaaat

#74500
0aaaaa
0aaaas

#75000
1aaaaa

#75500
0aaaaa

#76000
1aaaaa
0aaaat

#76500
0aaaaa
1aaaas

#77000
1aaaaa

#77500
0aaaaa

#78000
1aaaaa
1aaaat

#78500
0aaaaa
0aaaas

#79000
1aaaaa

#79500
0aaaaa

#80000
1aaaaa
0aaaat

#80500
0aaaaa
1aaaas

#81000
1aaaaa

#81500
0aaaaa

#82000
1aaaaa
1aaaat

#82500
0aaaaa
0aaaas

#83000
1aaaaa

#83500
0aaaaa

#84000
1aaaaa
0aaaat

#84500
0aaaaa
1aaaas

#85000
1aaaaa

#85500
0aaaaa

#86000
1aaaaa
1aaaat

#86500
0aaaaa
0aaaas

#87000
1aaaaa

#87500
0aaaaa

#88000
1aaaaa
0aaaat

#88500
0aaaaa
1aaaas

#89000
1aaaaa

#89500
0aaaaa

#90000
1aaaaa
1aaaat

#90500
0aaaaa
0aaaas

#91000
1aaaaa

#91500
0aaaaa

#92000
1aaaaa
0aaaat

#92500
0aaaaa
1aaaas

#93000
1aaaaa

#93500
0aaaaa

#94000
1aaaaa
1aaaat

#94500
0aaaaa
0aaaas

#95000
1aaaaa

#95500
0aaaaa

#96000
1aaaaa
0aaaat

#96500
0aaaaa
1aaaas

#97000
1aaaaa

#97500
0aaaaa

#98000
1aaaaa
1aaaat

#98500
0aaaaa
0aaaas

