ic_mre/ic_tb.vcd
$date
     Jul 05, 2021       21:25:35
$end

$version
 SystemC 2.3.3-Accellera --- Mar 22 2020 15:59:11
$end

$timescale
     1 ps
$end

$scope module SystemC $end
$var wire    1  aaaaa  req_w_o       $end
$var wire    1  aaaab  req_s_o       $end
$var wire    1  aaaac  req_e_o       $end
$var wire    1  aaaad  req_n_o       $end
$var wire    1  aaaae  req_l_o       $end
$var wire    7  aaaaf  data_i [6:0]  $end
$var wire    1  aaaag  rok_w       $end
$var wire    1  aaaah  rd_i       $end
$var wire    1  aaaai  rst_i       $end
$var wire    1  aaaaj  clk_i       $end
$var wire    1  aaaak  frame_i       $end
$upscope $end
$enddefinitions  $end

$comment
All initial values are dumped below at time 0 sec = 0 timescale units.
$end

$dumpvars
0aaaaa
0aaaab
0aaaac
0aaaad
0aaaae
b100001 aaaaf
1aaaag
0aaaah
1aaaai
1aaaaj
1aaaak
$end

#500
0aaaaj

#1000
1aaaah
0aaaai
1aaaaj

#1500
0aaaaj

#2000
1aaaac
b10 aaaaf
0aaaah
1aaaaj
0aaaak

#2500
0aaaaj

#3000
1aaaah
1aaaaj

#3500
0aaaaj

#4000
b101 aaaaf
0aaaah
1aaaaj

#4500
0aaaaj

#5000
1aaaah
1aaaaj

#5500
0aaaaj

#6000
b111 aaaaf
0aaaah
1aaaaj
1aaaak

#6500
0aaaaj

#7000
1aaaah
1aaaaj

#7500
0aaaaj

#8000
0aaaac
1aaaaj

#8500
0aaaaj

#9000
1aaaad
1aaaaj

