oc_mre/oc_tb.vcd
$date
     May 11, 2021       16:53:13
$end

$version
 SystemC 2.3.3-Accellera --- Mar 22 2020 15:59:11
$end

$timescale
     1 ps
$end

$scope module SystemC $end
$var wire    4  aaaaa  req_i [3:0]  $end
$var wire    4  aaaab  gnt_i [3:0]  $end
$var wire    1  aaaac  rst_i       $end
$var wire    1  aaaad  clk_i       $end
$upscope $end
$enddefinitions  $end

$comment
All initial values are dumped below at time 0 sec = 0 timescale units.
$end

$dumpvars
b0 aaaaa
b0 aaaab
1aaaac
1aaaad
$end

#500
0aaaad

#1000
0aaaac
1aaaad

#1500
0aaaad

#2000
1aaaad

#2500
0aaaad

#3000
1aaaad

#3500
0aaaad

#4000
1aaaad

#4500
0aaaad

#5000
b11 aaaaa
1aaaad

#5500
0aaaad

#6000
1aaaad

#6500
0aaaad

#7000
1aaaad

#7500
0aaaad

#8000
1aaaad

#8500
0aaaad

#9000
1aaaad

#9500
0aaaad

#10000
b100 aaaaa
1aaaad

#10500
0aaaad

#11000
1aaaad

#11500
0aaaad

#12000
1aaaad

#12500
0aaaad

#13000
1aaaad

#13500
0aaaad

#14000
1aaaad

#14500
0aaaad

#15000
b111 aaaaa
b10 aaaab
1aaaad

#15500
0aaaad

#16000
1aaaad

#16500
0aaaad

#17000
1aaaad

#17500
0aaaad

#18000
1aaaad

#18500
0aaaad

#19000
1aaaad

#19500
0aaaad

#20000
b1010 aaaaa
1aaaad

#20500
0aaaad

#21000
1aaaad

#21500
0aaaad

#22000
b0 aaaab
1aaaad

#22500
0aaaad

#23000
1aaaad

#23500
0aaaad

#24000
1aaaad

#24500
0aaaad

#25000
b1101 aaaaa
b1 aaaab
1aaaad

#25500
0aaaad

#26000
1aaaad

#26500
0aaaad

#27000
1aaaad

#27500
0aaaad

#28000
1aaaad

#28500
0aaaad

#29000
1aaaad

#29500
0aaaad

#30000
b1111 aaaaa
1aaaad

#30500
0aaaad

#31000
1aaaad

#31500
0aaaad

#32000
1aaaad

#32500
0aaaad

#33000
1aaaad

#33500
0aaaad

#34000
1aaaad

#34500
0aaaad

#35000
b101 aaaaa
1aaaad

#35500
0aaaad

#36000
1aaaad

#36500
0aaaad

#37000
b0 aaaab
1aaaad

