fifo_ring/fifo.vcd
$date
     Apr 04, 2021       22:34:37
$end

$version
 SystemC 2.3.3-Accellera --- Mar 22 2020 15:59:11
$end

$timescale
     1 ps
$end

$scope module SystemC $end
$var wire    8  aaaaa  w_input [7:0]  $end
$var wire    8  aaaab  w_output [7:0]  $end
$var wire    1  aaaac  w_rst       $end
$var wire    1  aaaad  w_rd_i       $end
$var wire    1  aaaae  w_wr_i       $end
$var wire    1  aaaaf  w_rok_o       $end
$var wire    1  aaaag  w_wok_o       $end
$var wire    1  aaaah  clk       $end
$upscope $end
$enddefinitions  $end

$comment
All initial values are dumped below at time 0 sec = 0 timescale units.
$end

$dumpvars
b0 aaaaa
b0 aaaab
1aaaac
0aaaad
0aaaae
0aaaaf
1aaaag
1aaaah
$end

#500
0aaaah

#1000
0aaaac
1aaaah

#1500
0aaaah

#2000
1aaaah

#2500
0aaaah

#3000
b1 aaaaa
1aaaae
1aaaah

#3500
b1 aaaab
1aaaaf
0aaaah

#4000
1aaaad
1aaaah

#4500
0aaaah

#5000
0aaaae
1aaaah

#5500
b0 aaaab
0aaaaf
0aaaah

#6000
b11 aaaaa
1aaaae
1aaaah

#6500
b11 aaaab
1aaaaf
0aaaah

#7000
1aaaah

#7500
0aaaah

#8000
0aaaae
1aaaah

#8500
b0 aaaab
0aaaaf
0aaaah

