xin/xin_tb.vcd
$date
     Jun 23, 2021       14:44:33
$end

$version
 SystemC 2.3.3-Accellera --- Mar 22 2020 15:59:11
$end

$timescale
     1 ps
$end

$scope module SystemC $end
$var wire    1  aaaaa  clk       $end
$var wire    1  aaaab  rst       $end
$var wire    8  aaaac  data_i [7:0]  $end
$var wire    1  aaaad  val_i       $end
$var wire    1  aaaae  ack_o       $end
$var wire    1  aaaaf  req_l_o       $end
$var wire    1  aaaag  req_n_o       $end
$var wire    1  aaaah  req_e_o       $end
$var wire    1  aaaai  req_s_o       $end
$var wire    1  aaaaj  req_w_o       $end
$var wire    4  aaaak  gnt_i [3:0]  $end
$var wire    1  aaaal  rok_o       $end
$var wire    4  aaaam  rd_i [3:0]  $end
$var wire    8  aaaan  data_o [7:0]  $end
$upscope $end
$enddefinitions  $end

$comment
All initial values are dumped below at time 0 sec = 0 timescale units.
$end

$dumpvars
1aaaaa
1aaaab
b0 aaaac
0aaaad
0aaaae
0aaaaf
0aaaag
0aaaah
0aaaai
0aaaaj
b0 aaaak
0aaaal
b0 aaaam
b0 aaaan
$end

#500
0aaaaa

#1000
1aaaaa
0aaaab
b11111111 aaaac
1aaaad

#1500
0aaaaa

#2000
1aaaaa
b10 aaaac
1aaaae
b100 aaaak

#2500
0aaaaa

#3000
1aaaaa
b100 aaaac
0aaaad

#3500
0aaaaa
1aaaal
b10 aaaan

#4000
1aaaaa
b10000000 aaaac
0aaaae
b100 aaaam

#4500
0aaaaa

#5000
1aaaaa
b0 aaaac
1aaaad
b0 aaaak

#5500
0aaaaa

#6000
1aaaaa
1aaaae

#6500
0aaaaa

#7000
1aaaaa
0aaaad

#7500
0aaaaa

#8000
1aaaaa
0aaaae

#8500
0aaaaa

#9000
1aaaaa
1aaaad

#9500
0aaaaa

#10000
1aaaaa
1aaaae

#10500
0aaaaa

#11000
1aaaaa
0aaaad

#11500
0aaaaa

#12000
1aaaaa
0aaaae

#12500
0aaaaa

#13000
1aaaaa
1aaaad

#13500
0aaaaa

#14000
1aaaaa
1aaaae

#14500
0aaaaa

#15000
1aaaaa
0aaaad

#15500
0aaaaa

#16000
1aaaaa
0aaaae

#16500
0aaaaa

#17000
1aaaaa
1aaaad

